Shifter/shifter.vcd
$date
    Sun Sep  6 07:18:06 2015
$end
$version
    GPLCVER_2.12a of 05/16/07
$end
$timescale
    1 ps
$end
$scope module top $end
$var wire       1 !    arg_a $end
$var reg      32 "    arg_r0 [31:0] $end
$var reg      32 #    arg_r1 [31:0] $end
$var integer      32 $    data_file [31:0] $end
$var wire       1 %    dist_a $end
$var reg       5 &    dist_r0 [4:0] $end
$var reg       5 '    dist_r1 [4:0] $end
$var reg       1 (    done_a $end
$var wire       1 )    done_r $end
$var integer      32 *    out_file [31:0] $end
$var reg       1 +    res_a $end
$var wire       1 ,    res_r $end
$var wire      32 -    res_r0 [31:0] $end
$var wire      32 .    res_r1 [31:0] $end
$var reg       1 /    reset $end
$var wire       1 0    shift_a $end
$var reg       2 1    shift_r0 [1:0] $end
$var reg       2 2    shift_r1 [1:0] $end
$scope module DUT $end
$var wire       1 3    L100_0a $end
$var wire       1 4    L100_0r $end
$var wire       1 5    L106_0a $end
$var wire      32 6    L106_0r0 [31:0] $end
$var wire      32 7    L106_0r1 [31:0] $end
$var wire       1 8    L108_0a $end
$var wire      32 9    L108_0r0 [31:0] $end
$var wire      32 :    L108_0r1 [31:0] $end
$var wire       1 ;    L110_0a $end
$var wire      32 <    L110_0r0 [31:0] $end
$var wire      32 =    L110_0r1 [31:0] $end
$var wire       1 >    L112_0a $end
$var wire      32 ?    L112_0r0 [31:0] $end
$var wire      32 @    L112_0r1 [31:0] $end
$var wire       1 A    L113_0a $end
$var wire      32 B    L113_0r0 [31:0] $end
$var wire      32 C    L113_0r1 [31:0] $end
$var wire       1 D    L114_0a $end
$var wire       1 E    L114_0r $end
$var wire       1 F    L122_0a $end
$var wire      32 G    L122_0r0 [31:0] $end
$var wire      32 H    L122_0r1 [31:0] $end
$var wire       1 I    L129_0a $end
$var wire       7 J    L129_0r0 [6:0] $end
$var wire       7 K    L129_0r1 [6:0] $end
$var wire       1 L    L137_0a $end
$var wire      31 M    L137_0r0 [30:0] $end
$var wire      31 N    L137_0r1 [30:0] $end
$var wire       1 O    L138_0a $end
$var wire      31 P    L138_0r0 [30:0] $end
$var wire      31 Q    L138_0r1 [30:0] $end
$var wire       1 R    L139_0a $end
$var wire      31 S    L139_0r0 [30:0] $end
$var wire      31 T    L139_0r1 [30:0] $end
$var wire       1 U    L140_0a $end
$var wire      30 V    L140_0r0 [29:0] $end
$var wire      30 W    L140_0r1 [29:0] $end
$var wire       1 X    L141_0a $end
$var wire      30 Y    L141_0r0 [29:0] $end
$var wire      30 Z    L141_0r1 [29:0] $end
$var wire       1 [    L142_0a $end
$var wire      30 \    L142_0r0 [29:0] $end
$var wire      30 ]    L142_0r1 [29:0] $end
$var wire       1 ^    L143_0a $end
$var wire       1 _    L143_0r $end
$var wire       1 `    L144_0a $end
$var wire       1 a    L144_0r $end
$var wire       1 b    L148A_0a $end
$var wire       1 c    L148A_0r0 $end
$var wire       1 d    L148A_0r1 $end
$var wire       1 e    L148P_0a $end
$var wire       1 f    L148P_0r0 $end
$var wire       1 g    L148P_0r1 $end
$var wire       1 h    L149_0a $end
$var wire       1 i    L149_0r $end
$var wire       1 j    L151_0a $end
$var wire       7 k    L151_0r0 [6:0] $end
$var wire       7 l    L151_0r1 [6:0] $end
$var wire       1 m    L152A_0a $end
$var wire       1 n    L152A_0r0 $end
$var wire       1 o    L152A_0r1 $end
$var wire       1 p    L152P_0a $end
$var wire       1 q    L152P_0r0 $end
$var wire       1 r    L152P_0r1 $end
$var wire       1 s    L154A_0a $end
$var wire       1 t    L154A_0r $end
$var wire       1 u    L154P_0a $end
$var wire       1 v    L154P_0r $end
$var wire       1 w    L156_0a $end
$var wire       1 x    L156_0r $end
$var wire       1 y    L157_0a $end
$var wire       1 z    L157_0r $end
$var wire       1 {    L158_0a $end
$var wire       1 |    L158_0r $end
$var wire       1 }    L159_0a $end
$var wire       1 "!   L159_0r $end
$var wire       1 ""   L160_0a $end
$var wire       1 "#   L160_0r $end
$var wire       1 "$   L161_0a $end
$var wire       1 "%   L161_0r $end
$var wire       1 "&   L162_0a $end
$var wire       1 "'   L162_0r $end
$var wire       1 "(   L175_0a $end
$var wire       2 ")   L175_0r0 [1:0] $end
$var wire       2 "*   L175_0r1 [1:0] $end
$var wire       1 "+   L181_0a $end
$var wire       2 ",   L181_0r0 [1:0] $end
$var wire       2 "-   L181_0r1 [1:0] $end
$var wire       1 ".   L183_0a $end
$var wire       1 "/   L183_0r $end
$var wire       1 "0   L184_0a $end
$var wire       1 "1   L184_0r $end
$var wire       1 "2   L185_0a $end
$var wire       1 "3   L185_0r0 $end
$var wire       1 "4   L185_0r1 $end
$var wire       1 "5   L186_0a $end
$var wire       1 "6   L186_0r0 $end
$var wire       1 "7   L186_0r1 $end
$var wire       1 "8   L188_0a $end
$var wire       1 "9   L188_0r0 $end
$var wire       1 ":   L188_0r1 $end
$var wire       1 ";   L189_0a $end
$var wire       1 "<   L189_0r0 $end
$var wire       1 "=   L189_0r1 $end
$var wire       1 ">   L1_0a $end
$var wire       1 "?   L1_0r $end
$var wire       1 "@   L35_0a $end
$var wire      32 "A   L35_0r0 [31:0] $end
$var wire      32 "B   L35_0r1 [31:0] $end
$var wire       1 "C   L37A_0a $end
$var wire       1 "D   L37A_0r $end
$var wire       1 "E   L37P_0a $end
$var wire       1 "F   L37P_0r $end
$var wire       1 "G   L38_0a $end
$var wire       1 "H   L38_0r $end
$var wire       1 "I   L72_0a $end
$var wire      32 "J   L72_0r0 [31:0] $end
$var wire      32 "K   L72_0r1 [31:0] $end
$var wire       1 "L   L74_0a $end
$var wire       1 "M   L74_0r $end
$var wire       1 "N   L76_0a $end
$var wire       1 "O   L76_0r $end
$var wire       1 "P   L78_0a $end
$var wire      32 "Q   L78_0r0 [31:0] $end
$var wire      32 "R   L78_0r1 [31:0] $end
$var wire       1 "S   L80_0a $end
$var wire      32 "T   L80_0r0 [31:0] $end
$var wire      32 "U   L80_0r1 [31:0] $end
$var wire       1 "V   L82_0a $end
$var wire      32 "W   L82_0r0 [31:0] $end
$var wire      32 "X   L82_0r1 [31:0] $end
$var wire       1 "Y   L84_0a $end
$var wire      32 "Z   L84_0r0 [31:0] $end
$var wire      32 "[   L84_0r1 [31:0] $end
$var wire       1 "\   L87_0a $end
$var wire      32 "]   L87_0r0 [31:0] $end
$var wire      32 "^   L87_0r1 [31:0] $end
$var wire       1 "_   arg_0a $end
$var wire      32 "`   arg_0r0 [31:0] $end
$var wire      32 "a   arg_0r1 [31:0] $end
$var wire       1 "b   distanceI_0a $end
$var wire       5 "c   distanceI_0r0 [4:0] $end
$var wire       5 "d   distanceI_0r1 [4:0] $end
$var wire       1 "e   reset $end
$var wire       1 "f   result_0a $end
$var wire      32 "g   result_0r0 [31:0] $end
$var wire      32 "h   result_0r1 [31:0] $end
$var wire       1 "i   shift_0a $end
$var wire       2 "j   shift_0r0 [1:0] $end
$var wire       2 "k   shift_0r1 [1:0] $end
$upscope $end
$upscope $end
$enddefinitions $end
#0
$dumpvars
x!
b0 "
b0 #
bx $
x%
b0 &
b0 '
0(
z)
b10000000000000000000000000000101 *
0+
x,
bx -
bx .
1/
x0
b0 1
b0 2
x3
x4
x5
bx 6
bx 7
x8
bx 9
bx0 :
x;
bx <
b0xxxxxxxxxxxxxxxxxxxxxxxxxxxxxxx =
x>
b0xxxxxxxxxxxxxxxxxxxxxxxxxxxxxxx ?
bx @
xA
bx B
bx C
xD
xE
xF
bx G
bx H
xI
b0x J
b0x K
xL
bx M
bx N
xO
bx P
bx Q
xR
bx S
bx T
xU
bx V
bx W
xX
bx Y
bx Z
x[
bx \
bx ]
x^
x_
x`
xa
xb
xc
xd
xe
xf
xg
xh
xi
xj
b0x k
b0x l
xm
xn
xo
xp
xq
xr
xs
xt
xu
xv
xw
xx
xy
xz
x{
x|
x}
x"!
x""
x"#
x"$
x"%
x"&
x"'
x"(
bx ")
bx "*
x"+
bx ",
bx "-
x".
x"/
x"0
x"1
x"2
x"3
x"4
x"5
x"6
x"7
x"8
x"9
x":
x";
x"<
x"=
x">
x"?
x"@
bx "A
bx "B
x"C
x"D
x"E
x"F
x"G
x"H
x"I
bx "J
bx "K
x"L
x"M
x"N
x"O
x"P
bx "Q
bx "R
x"S
bx "T
bx00 "U
x"V
bx "W
b0xxxxxxxxxxxxxxxxxxxxxxxxxxxxxx "X
x"Y
b0xxxxxxxxxxxxxxxxxxxxxxxxxxxxxx "Z
bx "[
x"\
bx "]
bx "^
x"_
b0 "`
b0 "a
x"b
b0 "c
b0 "d
1"e
0"f
bx "g
bx "h
x"i
b0 "j
b0 "k
$end
#50
0y
0{
0}
0""
0"$
0"&
b0x "J
b0x "K
0^
0U
0X
0[
0`
0L
0O
0R
0"C
0s
0"P
0"S
0"V
0"Y
05
08
0;
0>
0"F
b0 G
b0 H
0f
0g
0q
0r
0v
#100
b0 :
b0 =
bx0000000000000000000000000000000 @
b0 "U
b0 "X
bxx000000000000000000000000000000 "[
0b
0m
b0 N
b0 7
b0 Q
b0 T
b0 W
b0 "R
b0 Z
b0 ]
b0 "*
b0 "-
#200
b0x "B
b0x "A
0,
b0 .
b0 -
0D
0w
0u
b0 "h
b0 "g
04
0"N
b0 "^
b0 "]
b0 C
b0 B
#250
0E
b0 "B
b0 "A
#300
b0 k
b0 l
0!
0A
b0 J
b0 K
0"_
#400
0n
0c
0o
0d
#600
0"M
0"D
0i
#650
b0 "J
b0 "K
#750
0"?
#800
0"6
0"7
0"3
0"4
#850
0x
#900
0a
0"/
0"O
#950
b0 6
b0 ")
#1100
0".
0"'
0"#
0"%
0"(
#1150
b0 ?
b0x 9
bx0000000000000000000000000000000 <
b0 S
b0 M
b0 P
0"H
#1200
0"<
0"=
0"9
0":
0"5
#1250
0"\
0"E
0"@
0e
0">
0t
0"2
#1300
0_
0"1
#1350
b0 "Q
b0 ",
#1400
b0 @
b0 9
b0 <
#1500
0"0
0"!
0z
0|
0"+
#1550
b0 "Z
b0xx "T
bxx000000000000000000000000000000 "W
b0 \
b0 V
b0 Y
#1600
0";
#1650
0F
0"L
0"I
0p
0"G
0"8
#1700
0j
0h
#1800
0%
00
b0 "[
b0 "T
b0 "W
0"b
0"i
03
0I
#20000
0"e
0/
#20050
b10 k
b1111100 l
b10 J
b1111100 K
b11111111111111110000000000110011 "a
b1111111111001100 "`
b11101 "d
b10 "c
b11 "k
b11111111111111110000000000110011 #
b1111111111001100 "
b11101 '
b10 &
b11 2
#20100
b11111111111111110000000000110010 "K
b1111111111001100 "J
14
b11111111111111110000000000110011 H
b1111111111001100 G
#20200
b1111101 l
b1111101 K
#20300
1c
1o
#20350
1!
1"_
#20400
1b
1m
1r
b0 "a
b0 "`
b0 #
b0 "
#20450
1f
#20750
1"M
1"D
1i
#20800
1"C
b11111111111111110000000000110011 "K
1"F
#21550
1"H
#21600
1"=
1":
#21650
1t
#21700
1s
1"1
1v
#21750
b11 "-
#21900
1"!
#21950
b011111111110011 "Z
b0111111111111111100000000001100 "[
b011111111110011 \
b111111111111111100000000001100 ]
#22200
b11111111111111111100000000001100 "[
#22600
b11111111111111111100000000001100 "B
b011111111110010 "A
b11111111111111111100000000001100 "^
b011111111110011 "]
#22650
b011111111110011 "A
#23400
1"?
#23450
1"6
1"3
#23500
1x
#23550
1a
#23600
b011111111110011 6
b11111111111111111100000000001100 7
#24050
1,
b11111111111111111100000000001100 .
b011111111110011 -
b11111111111111111100000000001100 "h
b011111111110011 "g
b11111111111111111100000000001100 C
b011111111110011 B
#24100
1E
1"f
1+
#24150
1"O
